…
Pivot Longer

rel_inc %>%
  rename(
    religion = `Religious tradition`,
    n = `Sample Size`
  ) %>%
  pivot_longer( 
    cols = -c(religion, n),   # all but religion and n 
    names_to = "income",  
    values_to = "proportion" 
  )

## # A tibble: 48 x 4
##    religion                   n income            proportion
##    <chr>                  <dbl> <chr>                  <dbl>
##  1 Buddhist                 233 Less than $30,000       0.36
##  2 Buddhist                 233 $30,000-$49,999         0.18
##  3 Buddhist                 233 $50,000-$99,999         0.32
##  4 Buddhist                 233 $100,000 or more        0.13
##  5 Catholic                6137 Less than $30,000       0.36
##  6 Catholic                6137 $30,000-$49,999         0.19
##  7 Catholic                6137 $50,000-$99,999         0.26
##  8 Catholic                6137 $100,000 or more        0.19
##  9 Evangelical Protestant  7462 Less than $30,000       0.35
## 10 Evangelical Protestant  7462 $30,000-$49,999         0.22
## # ... with 38 more rows
Calculate Frequencies

rel_inc %>%
  rename(
    religion = `Religious tradition`,
    n = `Sample Size`
  ) %>%
  pivot_longer(
    cols = -c(religion, n), 
    names_to = "income", 
    values_to = "proportion"
  ) %>%
  mutate(frequency = round(proportion * n))

## # A tibble: 48 x 5
##    religion                   n income            proportion frequency
##    <chr>                  <dbl> <chr>                  <dbl>     <dbl>
##  1 Buddhist                 233 Less than $30,000       0.36        84
##  2 Buddhist                 233 $30,000-$49,999         0.18        42
##  3 Buddhist                 233 $50,000-$99,999         0.32        75
##  4 Buddhist                 233 $100,000 or more        0.13        30
##  5 Catholic                6137 Less than $30,000       0.36      2209
##  6 Catholic                6137 $30,000-$49,999         0.19      1166
##  7 Catholic                6137 $50,000-$99,999         0.26      1596
##  8 Catholic                6137 $100,000 or more        0.19      1166
##  9 Evangelical Protestant  7462 Less than $30,000       0.35      2612
## 10 Evangelical Protestant  7462 $30,000-$49,999         0.22      1642
## # ... with 38 more rows
…
