…
## 
## i Use `spec()` to retrieve the full column specification for this data.
## i Specify the column types or set `show_col_types = FALSE` to quiet this message.

Pivot

trump_longer <- trump %>%
  pivot_longer(
    cols = c(approval, disapproval),
    names_to = "rating_type",
    values_to = "rating_value"
  )
trump_longer

## # A tibble: 5,404 x 4
##    subgroup date       rating_type rating_value
##    <chr>    <date>     <chr>              <dbl>
##  1 Voters   2020-10-04 approval            44.7
##  2 Voters   2020-10-04 disapproval         52.2
##  3 Adults   2020-10-04 approval            43.2
##  4 Adults   2020-10-04 disapproval         52.6
##  5 Adults   2020-10-03 approval            43.2
##  6 Adults   2020-10-03 disapproval         52.6
##  7 Voters   2020-10-03 approval            45.0
##  8 Voters   2020-10-03 disapproval         51.7
##  9 Adults   2020-10-02 approval            43.3
## 10 Adults   2020-10-02 disapproval         52.4
## # ... with 5,394 more rows
…
