…
                       "2020-07-27", 18.3, 9.8,
                       "2020-07-28", 16.7, 9.4,
                       "2020-07-29", 16.5, 9.5,
                       "2020-07-30", 16.7, 9.9,
                       "2020-07-31", 16.3, 9.2,
                       "2020-08-01", 16, 8.7,
                       "2020-08-02", 15.9, 8.7,
                       "2020-08-03", 15.7, 8.8,
                       ) %>%
                mutate(
                      across(Date, as.Date)
                       )
cases

## # A tibble: 23 x 3
##    Date        Mask No_Mask
##    <date>     <dbl>   <dbl>
##  1 2020-07-12  26      10  
##  2 2020-07-13  19.7     9  
##  3 2020-07-14  19.7     9.5
##  4 2020-07-15  20       9.8
##  5 2020-07-16  20.5    10  
##  6 2020-07-17  19.7     9.8
##  7 2020-07-18  20       9.2
##  8 2020-07-19  20.5     9  
##  9 2020-07-20  20.2     8.6
## 10 2020-07-21  21       8.6
## # ... with 13 more rows
…
